<?xml version="1.0" encoding="UTF-8"?>
<svg xmlns="http://www.w3.org/2000/svg" xmlns:xlink="http://www.w3.org/1999/xlink" width="375pt" height="374.999991pt" viewBox="0 0 375 374.999991" version="1.2">
<defs>
<clipPath id="clip1">
  <path d="M 125 67.3125 L 251 67.3125 L 251 193 L 125 193 Z M 125 67.3125 "/>
</clipPath>
<clipPath id="clip2">
  <path d="M 67.3125 199 L 308.0625 199 L 308.0625 308.0625 L 67.3125 308.0625 Z M 67.3125 199 "/>
</clipPath>
</defs>
<g id="surface1">
<g clip-path="url(#clip1)" clip-rule="nonzero">
<path style=" stroke:none;fill-rule:nonzero;fill:rgb(100%,100%,100%);fill-opacity:1;" d="M 187.6875 192.503906 C 222.203125 192.503906 250.28125 164.421875 250.28125 129.90625 C 250.28125 95.394531 222.203125 67.3125 187.6875 67.3125 C 153.171875 67.3125 125.09375 95.394531 125.09375 129.90625 C 125.09375 164.421875 153.171875 192.503906 187.6875 192.503906 Z M 187.6875 76.941406 C 216.890625 76.941406 240.652344 100.703125 240.652344 129.90625 C 240.652344 159.109375 216.890625 182.871094 187.6875 182.871094 C 158.484375 182.871094 134.722656 159.109375 134.722656 129.90625 C 134.722656 100.703125 158.484375 76.941406 187.6875 76.941406 Z M 187.6875 76.941406 "/>
</g>
<g clip-path="url(#clip2)" clip-rule="nonzero">
<path style=" stroke:none;fill-rule:nonzero;fill:rgb(100%,100%,100%);fill-opacity:1;" d="M 250.710938 200.683594 C 248.976562 199.613281 246.757812 199.753906 245.160156 201.039062 C 228.703125 214.351562 208.824219 221.390625 187.6875 221.390625 C 166.550781 221.390625 146.679688 214.351562 130.21875 201.039062 C 128.636719 199.753906 126.40625 199.609375 124.667969 200.683594 C 88.753906 222.796875 67.3125 261.140625 67.3125 303.246094 C 67.3125 305.910156 69.46875 308.0625 72.128906 308.0625 L 303.246094 308.0625 C 305.910156 308.0625 308.0625 305.910156 308.0625 303.246094 C 308.0625 261.140625 286.621094 222.796875 250.710938 200.683594 Z M 77.042969 298.433594 C 78.558594 262.699219 96.902344 230.378906 126.90625 210.667969 C 144.371094 223.820312 165.816406 231.023438 187.6875 231.023438 C 209.5625 231.023438 231.007812 223.820312 248.46875 210.667969 C 278.472656 230.378906 296.816406 262.699219 298.332031 298.433594 Z M 77.042969 298.433594 "/>
</g>
</g>
</svg>
